,FA,FF,FHQ,FS,NI,NM,NP,RB,RS,RW
"('2003-01-01',)",,,,,,,,,,
"('2003-01-01',)",244.81,244.81,244.81,241.23,236.56,236.56,236.56,245.78,245.78,240.31999
"('2003-01-02',)",,,,,,,,,,
"('2003-01-02',)",,,,,,,,,,
"('2003-01-03',)",245.73999,245.73999,245.73999,239.56999,233.36,233.36,233.36,252.86,252.86,247.7
"('2003-01-03',)",,,,,,,,,,
"('2003-01-04',)",246.95999,246.95999,246.95999,,244.45999,244.45999,244.45999,249.51999,249.51999,245.51
"('2003-01-04',)",,,,,,,,,,
"('2003-01-05',)",,,,244.65,244.03,244.03,244.03,246.95999,246.95999,243.98
"('2003-01-05',)",247.23,247.23,247.23,246.31999,240.34999,240.34999,240.34999,248.56999,248.56999,246.51
"('2003-01-06',)",242.67,242.67,242.67,237.65999,234.81999,234.81999,234.81999,240.65999,240.65999,
"('2003-01-06',)",248.62999,248.62999,248.62999,245.08,238.92,238.92,238.92,246.29999,246.29999,240.84999
"('2003-01-07',)",245.47,245.47,245.47,239.54999,235.31999,235.31999,235.31999,,,
"('2003-01-07',)",248.48999,248.48999,248.48999,243.68,231.97,231.97,231.97,249.45,249.45,247.06
"('2003-01-08',)",,,,,,,,,,
"('2003-01-08',)",249.15999,249.15999,249.15999,243.98999,231.83,231.83,231.83,248.67,248.67,247.03
"('2003-01-09',)",,,,,,,,,,
"('2003-01-09',)",244.47,244.47,244.47,238.81999,233.0,233.0,233.0,,,
"('2003-01-10',)",237.37,237.37,237.37,235.40999,233.28,233.28,233.28,245.51999,245.51999,241.40999
"('2003-01-10',)",,,,,,,,,,
"('2003-01-11',)",240.62,240.62,240.62,235.12999,233.18,233.18,233.18,241.51,241.51,243.65
"('2003-01-11',)",,,,,,,,,,
"('2003-01-12',)",,,,238.53,239.12999,239.12999,239.12999,243.29,243.29,239.92
"('2003-01-12',)",241.90999,241.90999,241.90999,239.03,236.58,236.58,236.58,245.79,245.79,243.59
"('2003-01-13',)",245.45999,245.45999,245.45999,238.45999,235.81,235.81,235.81,244.15999,244.15999,236.56999
"('2003-01-13',)",248.45,248.45,248.45,247.56,241.18,241.18,241.18,245.97,245.97,243.98999
"('2003-01-14',)",245.84999,245.84999,245.84999,235.29,235.34999,235.34999,235.34999,238.53,238.53,241.34999
"('2003-01-14',)",247.51999,247.51999,247.51999,246.01999,240.45999,240.45999,240.45999,250.29999,250.29999,248.9
"('2003-01-15',)",,,,,,,,,,
"('2003-01-15',)",238.56,238.56,238.56,233.98,,,,237.59,237.59,239.64
"('2003-01-16',)",,,,,,,,,,
"('2003-01-16',)",239.47,239.47,239.47,238.25,234.09,234.09,234.09,240.37999,240.37999,237.40999
"('2003-01-17',)",237.43999,237.43999,237.43999,234.93,226.7,226.7,226.7,,,238.31
"('2003-01-17',)",,,,,,,,,,
"('2003-01-18',)",228.68,228.68,228.68,229.97,228.03,228.03,228.03,239.76999,239.76999,234.15999
"('2003-01-18',)",,,,,,,,,,
"('2003-01-19',)",,,,234.23,,,,239.2,239.2,
"('2003-01-19',)",244.92,244.92,244.92,243.34,234.42,234.42,234.42,242.42,242.42,241.20999
"('2003-01-20',)",241.98999,241.98999,241.98999,234.06999,235.51999,235.51999,235.51999,241.9,241.9,233.11
"('2003-01-20',)",244.56999,244.56999,244.56999,242.78,235.31999,235.31999,235.31999,246.23,246.23,243.5
"('2003-01-21',)",,,,239.11,236.90999,236.90999,236.90999,242.23999,242.23999,237.97
"('2003-01-21',)",243.76999,243.76999,243.76999,242.40999,233.11,233.11,233.11,245.28,245.28,243.22
"('2003-01-22',)",,,,,,,,,,
"('2003-01-22',)",241.9,241.9,241.9,240.58,,,,241.98999,241.98999,236.84999
"('2003-01-23',)",,,,,,,,,,
"('2003-01-23',)",251.4,251.4,251.4,250.93999,254.78,254.78,254.78,252.65999,252.65999,249.33
"('2003-01-24',)",,,,,228.37999,228.37999,228.37999,245.36,245.36,245.9
"('2003-01-24',)",,,,,,,,,,
"('2003-01-25',)",240.31,240.31,240.31,240.01,228.65,228.65,228.65,239.51,239.51,244.37999
"('2003-01-25',)",,,,,,,,,,
"('2003-01-26',)",,,,241.48999,232.67,232.67,232.67,241.70999,241.70999,245.51999
"('2003-01-26',)",248.36,248.36,248.36,248.2,240.75,240.75,240.75,250.78,250.78,247.83
"('2003-01-27',)",247.43999,247.43999,247.43999,241.29999,239.17,239.17,239.17,244.34999,244.34999,237.08
"('2003-01-27',)",252.28,252.28,252.28,254.97,260.83,260.83,260.83,260.16,260.16,257.44998
"('2003-01-28',)",249.42,249.42,249.42,238.51999,244.68999,244.68999,244.68999,240.65,240.65,241.18
"('2003-01-28',)",246.39,246.39,246.39,246.72,237.34,237.34,237.34,252.34999,252.34999,248.37999
"('2003-01-29',)",,,,,,,,,,
"('2003-01-29',)",243.11,243.11,243.11,241.18,227.5,227.5,227.5,241.81,241.81,
"('2003-01-30',)",,,,,,,,,,
"('2003-01-30',)",253.28,253.28,253.28,254.11,241.23999,241.23999,241.23999,248.76999,248.76999,248.76999
"('2003-01-31',)",,,,,,,,254.33,254.33,
"('2003-01-31',)",,,,,,,,,,
"('2003-02-01',)",244.09,244.09,244.09,236.18999,231.65,231.65,231.65,242.97,242.97,241.97
"('2003-02-01',)",,,,,,,,,,
"('2003-02-02',)",242.90999,242.90999,242.90999,,232.28,232.28,232.28,242.33,242.33,242.45999
"('2003-02-02',)",,,,,,,,,,
"('2003-02-03',)",239.59999,239.59999,239.59999,232.78,,,,233.53,233.53,228.18
"('2003-02-03',)",233.93,233.93,233.93,228.79,222.65999,222.65999,222.65999,230.95999,230.95999,232.81999
"('2003-02-04',)",235.40999,235.40999,235.40999,,223.29,223.29,223.29,231.40999,231.40999,226.95999
"('2003-02-04',)",236.26,236.26,236.26,231.73,219.90999,219.90999,219.90999,231.01999,231.01999,228.51999
"('2003-02-05',)",231.79,231.79,231.79,228.67,216.4,216.4,216.4,,,221.18
"('2003-02-05',)",229.87,229.87,229.87,226.26999,221.33,221.33,221.33,224.31,224.31,223.90999
"('2003-02-06',)",,,,,,,,,,
"('2003-02-06',)",228.84,228.84,228.84,222.59999,221.94,221.94,221.94,227.86,227.86,222.01
"('2003-02-07',)",,,,,,,,,,
"('2003-02-07',)",229.58,229.58,229.58,224.95999,219.06,219.06,219.06,,,
"('2003-02-08',)",222.22,222.22,222.22,217.81,216.34,216.34,216.34,226.76,226.76,215.09999
"('2003-02-08',)",,,,,,,,,,
"('2003-02-09',)",227.44,227.44,227.44,228.25,215.25,215.25,215.25,231.37999,231.37999,225.67
"('2003-02-09',)",,,,,,,,,,
"('2003-02-10',)",,,,229.78,,,,231.56999,231.56999,
"('2003-02-10',)",236.45999,236.45999,236.45999,235.78,225.69,225.69,225.69,232.17,232.17,230.58
"('2003-02-11',)",233.95999,233.95999,233.95999,,230.14,230.14,230.14,229.53,229.53,226.94
"('2003-02-11',)",239.62999,239.62999,239.62999,237.51999,228.56999,228.56999,228.56999,237.53,237.53,232.48999
"('2003-02-12',)",236.95,236.95,236.95,233.72,226.59999,226.59999,226.59999,228.62,228.62,224.69
"('2003-02-12',)",243.01999,243.01999,243.01999,238.04999,227.33,227.33,227.33,236.72,236.72,235.5
"('2003-02-13',)",,,,,,,,,,
"('2003-02-13',)",252.51999,252.51999,252.51999,250.0,262.09,262.09,262.09,261.47998,261.47998,251.89
"('2003-02-14',)",,,,,,,,,,
"('2003-02-14',)",249.98,249.98,249.98,255.23,258.25,258.25,258.25,258.38,258.38,258.3
"('2003-02-15',)",,,,231.48999,227.92,227.92,227.92,247.81,247.81,243.59
"('2003-02-15',)",,,,,,,,,,
"('2003-02-16',)",233.0,233.0,233.0,230.65,224.65999,224.65999,224.65999,229.40999,229.40999,230.87999
"('2003-02-16',)",,,,,,,,,,
"('2003-02-17',)",232.89,232.89,232.89,233.34,223.51,223.51,223.51,233.43,233.43,231.04999
"('2003-02-17',)",239.09,239.09,239.09,232.81,227.22,227.22,227.22,233.36,233.36,230.15999
"('2003-02-18',)",238.33,238.33,238.33,232.5,227.79999,227.79999,227.79999,,,226.58
"('2003-02-18',)",236.5,236.5,236.5,232.73999,227.09999,227.09999,227.09999,235.51999,235.51999,231.59
"('2003-02-19',)",,,,227.37999,217.53,217.53,217.53,225.12,225.12,225.08
"('2003-02-19',)",238.09999,238.09999,238.09999,233.72,225.76999,225.76999,225.76999,234.34999,234.34999,232.45
"('2003-02-20',)",,,,,,,,,,
"('2003-02-20',)",238.14,238.14,238.14,231.48,,,,233.68,233.68,229.95
"('2003-02-21',)",,,,,,,,,,
"('2003-02-21',)",241.62,241.62,241.62,239.06,228.44,228.44,228.44,236.06,236.06,233.12999
"('2003-02-22',)",,,,,226.97,226.97,226.97,237.34999,237.34999,234.11
"('2003-02-22',)",,,,,,,,,,
"('2003-02-23',)",227.48999,227.48999,227.48999,228.48999,221.06,221.06,221.06,234.73999,234.73999,229.18
"('2003-02-23',)",,,,,,,,,,
"('2003-02-24',)",232.08,232.08,232.08,232.26999,218.81,218.81,218.81,229.68,229.68,229.06
"('2003-02-24',)",239.39,239.39,239.39,233.95,229.14,229.14,229.14,231.04999,231.04999,232.09999
"('2003-02-25',)",243.54999,243.54999,243.54999,233.23999,235.09,235.09,235.09,235.33,235.33,233.76999
"('2003-02-25',)",242.54999,242.54999,242.54999,240.84999,233.62999,233.62999,233.62999,239.65,239.65,239.0
"('2003-02-26',)",242.65,242.65,242.65,233.89,235.61,235.61,235.61,236.36,236.36,232.87999
"('2003-02-26',)",243.2,243.2,243.2,242.0,232.62,232.62,232.62,242.51,242.51,241.26
"('2003-02-27',)",,,,,,,,,,
"('2003-02-27',)",240.48999,240.48999,240.48999,240.2,234.06,234.06,234.06,,,246.37
"('2003-02-28',)",,,,,,,,,,
"('2003-02-28',)",239.90999,239.90999,239.90999,237.17,231.5,231.5,231.5,237.56,237.56,232.54999
"('2003-03-01',)",,,,,,,,231.28,231.28,
"('2003-03-01',)",,,,,,,,,,
"('2003-03-02',)",232.9,232.9,232.9,224.78,219.2,219.2,219.2,231.65999,231.65999,230.42
"('2003-03-02',)",,,,,,,,,,
"('2003-03-03',)",234.84999,234.84999,234.84999,,226.20999,226.20999,226.20999,,,234.0
"('2003-03-03',)",,,,,,,,241.48,241.48,238.86
"('2003-03-04',)",,,,,,,,,,
"('2003-03-04',)",237.86,237.86,237.86,231.95999,228.61,228.61,228.61,234.62999,234.62999,234.58
"('2003-03-05',)",238.56,238.56,238.56,229.34999,224.87,224.87,224.87,234.51,234.51,228.62999
"('2003-03-05',)",,,,,,,,239.70999,239.70999,235.89
"('2003-03-06',)",243.67,243.67,243.67,238.54999,234.95999,234.95999,234.95999,,,
"('2003-03-06',)",244.26,244.26,244.26,241.39,231.95,231.95,231.95,246.81999,246.81999,244.87
"('2003-03-07',)",,,,,,,,,,
"('2003-03-07',)",249.04,249.04,249.04,252.23999,,,,255.43999,255.43999,252.31
"('2003-03-08',)",,,,,,,,,,
"('2003-03-08',)",256.07,256.07,256.07,259.34,247.87,247.87,247.87,,,
"('2003-03-09',)",241.79,241.79,241.79,237.86,229.98999,229.98999,229.98999,239.70999,239.70999,235.9
"('2003-03-09',)",,,,,,,,,,
"('2003-03-10',)",244.31999,244.31999,244.31999,243.68999,236.97,236.97,236.97,240.56999,240.56999,236.75
"('2003-03-10',)",,,,,,,,,,
"('2003-03-11',)",,,,244.18999,230.23999,230.23999,230.23999,243.17,243.17,239.98999
"('2003-03-11',)",257.04,257.04,257.04,261.38,260.21,260.21,260.21,261.22998,261.22998,261.83
"('2003-03-12',)",249.56999,249.56999,249.56999,243.43999,241.54999,241.54999,241.54999,245.01,245.01,
"('2003-03-12',)",258.41,258.41,258.41,261.0,261.11,261.11,261.11,,,
"('2003-03-13',)",247.67,247.67,247.67,237.31999,238.06999,238.06999,238.06999,236.43999,236.43999,237.81
"('2003-03-13',)",260.93,260.93,260.93,263.62,262.96,262.96,262.96,264.85,264.85,265.06
"('2003-03-14',)",,,,,,,,,,
"('2003-03-14',)",260.32,260.32,260.32,265.36,263.59,263.59,263.59,266.97998,266.97998,267.44
"('2003-03-15',)",,,,,,,,,,
"('2003-03-15',)",260.29,260.29,260.29,264.88,265.06,265.06,265.06,264.93,264.93,266.38
"('2003-03-16',)",244.61,244.61,244.61,240.4,243.68,243.68,243.68,252.87999,252.87999,247.12
"('2003-03-16',)",,,,,,,,,,
"('2003-03-17',)",253.40999,253.40999,253.40999,257.02,251.62,251.62,251.62,251.48999,251.48999,249.72
"('2003-03-17',)",,,,,,,,,,
"('2003-03-18',)",249.06,249.06,249.06,,245.11,245.11,245.11,,,247.29999
"('2003-03-18',)",246.03,246.03,246.03,252.87,246.9,246.9,246.9,256.59,256.59,250.95
"('2003-03-19',)",,,,252.73999,246.58,246.58,246.58,240.70999,240.70999,
"('2003-03-19',)",251.08,251.08,251.08,257.55,249.17,249.17,249.17,257.0,257.0,256.69998
"('2003-03-20',)",244.90999,244.90999,244.90999,249.75,242.93,242.93,242.93,235.43,235.43,236.97
"('2003-03-20',)",260.18,260.18,260.18,,,,,261.19998,261.19998,262.79
"('2003-03-21',)",,,,,,,,,,
"('2003-03-21',)",251.11,251.11,251.11,255.79,262.16998,262.16998,262.16998,256.21,256.21,256.85
"('2003-03-22',)",,,,,,,,,,
"('2003-03-22',)",259.50998,259.50998,259.50998,261.94998,261.68,261.68,261.68,260.91998,260.91998,263.46
"('2003-03-23',)",,,,241.73999,240.04,240.04,240.04,,,234.36
"('2003-03-23',)",,,,,,,,,,
"('2003-03-24',)",248.29,248.29,248.29,247.09999,255.98,255.98,255.98,258.6,258.6,
"('2003-03-24',)",,,,,,,,,,
"('2003-03-25',)",242.03,242.03,242.03,234.37,236.17,236.17,236.17,234.29999,234.29999,230.83
"('2003-03-25',)",253.79,253.79,253.79,256.47,253.92,253.92,253.92,254.7,254.7,253.39
"('2003-03-26',)",246.76,246.76,246.76,244.90999,244.09,244.09,244.09,240.98,240.98,236.62
"('2003-03-26',)",255.68999,255.68999,255.68999,259.02,261.25,261.25,261.25,258.66998,258.66998,256.99
"('2003-03-27',)",239.98,239.98,239.98,241.12,241.28,241.28,241.28,,,235.18999
"('2003-03-27',)",236.56,236.56,236.56,237.39,236.08,236.08,236.08,245.42,245.42,242.61
"('2003-03-28',)",,,,,,,,,,
"('2003-03-28',)",,,,,,,,,,
"('2003-03-29',)",,,,,,,,,,
"('2003-03-29',)",239.43999,239.43999,239.43999,236.5,235.17,235.17,235.17,233.68999,233.68999,235.12999
"('2003-03-30',)",,,,,,,,235.78,235.78,226.61
"('2003-03-30',)",,,,,,,,,,
"('2003-03-31',)",239.75,239.75,239.75,234.25,237.59999,237.59999,237.59999,233.95,233.95,
"('2003-03-31',)",,,,,,,,,,
"('2003-04-01',)",,,,236.47,245.34999,245.34999,245.34999,236.95999,236.95999,228.98999
"('2003-04-01',)",,,,,,,,264.69,264.69,265.38998
"('2003-04-02',)",246.0,246.0,246.0,241.12,247.81,247.81,247.81,,,238.26
"('2003-04-02',)",261.25,261.25,261.25,264.46,264.09,264.09,264.09,262.94998,262.94998,264.02
"('2003-04-03',)",242.42,242.42,242.42,240.18,249.17,249.17,249.17,,,239.0
"('2003-04-03',)",246.31,246.31,246.31,249.18,252.83,252.83,252.83,250.43,250.43,251.31
"('2003-04-04',)",234.89,234.89,234.89,232.7,238.09999,238.09999,238.09999,,,
"('2003-04-04',)",239.61,239.61,239.61,245.43999,246.45999,246.45999,246.45999,249.76,249.76,252.28
"('2003-04-05',)",,,,,,,,,,
"('2003-04-05',)",250.42,250.42,250.42,254.12,256.32,256.32,256.32,253.56999,253.56999,255.01
"('2003-04-06',)",,,,,,,,,,
"('2003-04-06',)",,,,248.73,254.83,254.83,254.83,,,
"('2003-04-07',)",235.67,235.67,235.67,227.64,240.01999,240.01999,240.01999,235.11,235.11,
"('2003-04-07',)",,,,,,,,,,
"('2003-04-08',)",,,,227.40999,240.87,240.87,240.87,235.18,235.18,228.12999
"('2003-04-08',)",,,,,,,,,,
"('2003-04-09',)",,,,231.59,,,,231.56999,231.56999,
"('2003-04-09',)",261.36,261.36,261.36,263.25,265.75,265.75,265.75,265.79,265.79,264.54
"('2003-04-10',)",243.62,243.62,243.62,,248.4,248.4,248.4,235.26999,235.26999,234.65
"('2003-04-10',)",265.13998,265.13998,265.13998,266.78,266.59,266.59,266.59,266.18,266.18,267.33
"('2003-04-11',)",245.54999,245.54999,245.54999,238.48,252.17,252.17,252.17,242.26,242.26,239.53
"('2003-04-11',)",266.56,266.56,266.56,268.82,268.94,268.94,268.94,268.16,268.16,269.66998
"('2003-04-12',)",,,,,,,,,,
"('2003-04-12',)",266.05,266.05,266.05,269.84,270.63,270.63,270.63,268.85,268.85,270.59
"('2003-04-13',)",,,,,,,,,,
"('2003-04-13',)",267.37,267.37,267.37,270.28,273.44,273.44,273.44,270.69998,270.69998,270.31
"('2003-04-14',)",246.93,246.93,246.93,248.81,261.16998,261.16998,261.16998,251.2,251.2,248.11
"('2003-04-14',)",,,,,,,,,,
"('2003-04-15',)",247.33,247.33,247.33,247.48999,261.24,261.24,261.24,253.45999,253.45999,253.70999
"('2003-04-15',)",,,,,,,,,,
"('2003-04-16',)",253.7,253.7,253.7,256.24,258.11,258.11,258.11,255.18,255.18,255.78
"('2003-04-16',)",258.9,258.9,258.9,263.97,266.00998,266.00998,266.00998,265.21,265.21,266.16
"('2003-04-17',)",245.81999,245.81999,245.81999,244.23,256.8,256.8,256.8,249.59999,249.59999,247.62
"('2003-04-17',)",258.15,258.15,258.15,262.57,266.78,266.78,266.78,,,
"('2003-04-18',)",248.62,248.62,248.62,,259.86,259.86,259.86,254.84999,254.84999,254.51
"('2003-04-18',)",252.42,252.42,252.42,260.16,264.13,264.13,264.13,258.65,258.65,261.87
"('2003-04-19',)",,,,,,,,,,
"('2003-04-19',)",247.43999,247.43999,247.43999,253.62,265.25,265.25,265.25,262.86,262.86,266.04
"('2003-04-20',)",,,,,,,,,,
"('2003-04-20',)",263.27,263.27,263.27,265.58,267.52,267.52,267.52,265.52,265.52,268.07
"('2003-04-21',)",246.34999,246.34999,246.34999,249.79999,259.94,259.94,259.94,248.18,248.18,250.33
"('2003-04-21',)",,,,,,,,,,
"('2003-04-22',)",251.65999,251.65999,251.65999,251.72,261.77,261.77,261.77,257.99,257.99,259.38998
"('2003-04-22',)",,,,,,,,,,
"('2003-04-23',)",246.58,246.58,246.58,,260.68,260.68,260.68,258.11,258.11,259.77
"('2003-04-23',)",243.06,243.06,243.06,250.90999,259.72998,259.72998,259.72998,258.19998,258.19998,259.00998
"('2003-04-24',)",250.37999,250.37999,250.37999,251.0,,,,258.86,258.86,261.56
"('2003-04-24',)",255.84,255.84,255.84,262.16,265.96,265.96,265.96,265.35,265.35,266.29
"('2003-04-25',)",247.95,247.95,247.95,248.83,249.51999,249.51999,249.51999,252.40999,252.40999,252.95
"('2003-04-25',)",267.27,267.27,267.27,269.41998,269.29,269.29,269.29,270.18,270.18,270.77
"('2003-04-26',)",,,,,,,,,,
"('2003-04-26',)",267.31,267.31,267.31,270.25,268.94998,268.94998,268.94998,270.24,270.24,271.02
"('2003-04-27',)",,,,,,,,,,
"('2003-04-27',)",268.46,268.46,268.46,269.65,269.85,269.85,269.85,270.6,270.6,271.3
"('2003-04-28',)",,,,,,,,258.77,258.77,263.58
"('2003-04-28',)",,,,,,,,,,
"('2003-04-29',)",251.29999,251.29999,251.29999,,,,,260.29,260.29,262.04
"('2003-04-29',)",,,,,,,,,,
"('2003-04-30',)",247.67,247.67,247.67,255.75,259.66998,259.66998,259.66998,256.68,256.68,257.75998
"('2003-04-30',)",,,,,262.28,262.28,262.28,256.02,256.02,258.43
"('2003-05-01',)",241.08,241.08,241.08,,259.75998,259.75998,259.75998,255.84999,255.84999,254.25
"('2003-05-01',)",252.98,252.98,252.98,261.68,265.86,265.86,265.86,263.58,263.58,265.61
"('2003-05-02',)",243.03,243.03,243.03,,259.72998,259.72998,259.72998,252.04999,252.04999,255.04
"('2003-05-02',)",257.36,257.36,257.36,262.69998,268.94998,268.94998,268.94998,269.79,269.79,269.57
"('2003-05-03',)",247.12,247.12,247.12,252.90999,,,,,,
"('2003-05-03',)",260.74,260.74,260.74,267.5,267.46,267.46,267.46,267.46,267.46,269.88998
"('2003-05-04',)",,,,,,,,,,
"('2003-05-04',)",251.58,251.58,251.58,263.83,262.57,262.57,262.57,263.12,263.12,263.99
"('2003-05-05',)",,,,,,,,,,
"('2003-05-05',)",,,,,,,,,,
"('2003-05-06',)",246.76999,246.76999,246.76999,253.09,260.19998,260.19998,260.19998,250.11,250.11,256.22998
"('2003-05-06',)",,,,,,,,,,
"('2003-05-07',)",247.89,247.89,247.89,252.40999,264.16998,264.16998,264.16998,,,254.79
"('2003-05-07',)",,,,,,,,,,
"('2003-05-08',)",,,,254.51,259.6,259.6,259.6,256.78,256.78,257.02
"('2003-05-08',)",252.12,252.12,252.12,262.43,265.97,265.97,265.97,260.29,260.29,262.91998
"('2003-05-09',)",244.22,244.22,244.22,256.13,259.32,259.32,259.32,254.76999,254.76999,261.02
"('2003-05-09',)",254.59999,254.59999,254.59999,260.18,262.81,262.81,262.81,262.75998,262.75998,263.41998
"('2003-05-10',)",244.11,244.11,244.11,255.40999,258.25998,258.25998,258.25998,257.79,257.79,258.65
"('2003-05-10',)",252.01,252.01,252.01,256.21,264.0,264.0,264.0,261.16998,261.16998,263.18
"('2003-05-11',)",,,,,,,,,,
"('2003-05-11',)",260.66998,260.66998,260.66998,266.38998,265.56,265.56,265.56,267.75998,267.75998,269.52
"('2003-05-12',)",,,,,,,,,,
"('2003-05-12',)",269.78,269.78,269.78,272.75,273.78,273.78,273.78,272.99,272.99,
"('2003-05-13',)",258.81,258.81,258.81,263.5,267.72,267.72,267.72,265.37,265.37,265.97
"('2003-05-13',)",,,,,,,,,,
"('2003-05-14',)",258.46,258.46,258.46,266.9,269.13998,269.13998,269.13998,262.44998,262.44998,265.29
"('2003-05-14',)",,,,,,,,,,
"('2003-05-15',)",265.18,265.18,265.18,267.1,272.44,272.44,272.44,270.03,270.03,270.97
"('2003-05-15',)",269.27,269.27,269.27,270.16,271.66,271.66,271.66,271.00998,271.00998,270.21
"('2003-05-16',)",267.13,267.13,267.13,268.96,268.91,268.91,268.91,269.04,269.04,268.69
"('2003-05-16',)",271.05,271.05,271.05,273.43,275.82,275.82,275.82,276.59,276.59,276.58
"('2003-05-17',)",261.54,261.54,261.54,267.63998,272.91998,272.91998,272.91998,271.03,271.03,270.85
"('2003-05-17',)",274.03,274.03,274.03,274.18,275.16,275.16,275.16,274.12,274.12,274.69998
"('2003-05-18',)",,,,,,,,,,
"('2003-05-18',)",268.54,268.54,268.54,268.38,271.56,271.56,271.56,269.91,269.91,268.31
"('2003-05-19',)",,,,,,,,,,
"('2003-05-19',)",268.38998,268.38998,268.38998,271.85,270.9,270.9,270.9,270.22998,270.22998,272.47998
"('2003-05-20',)",259.65,259.65,259.65,266.34,268.15,268.15,268.15,261.38998,261.38998,261.58
"('2003-05-20',)",,,,,,,,,,
"('2003-05-21',)",258.74,258.74,258.74,266.56,269.81,269.81,269.81,260.63998,260.63998,267.36
"('2003-05-21',)",,,,,,,,,,
"('2003-05-22',)",259.74,259.74,259.74,270.12,272.43,272.43,272.43,267.29,267.29,
"('2003-05-22',)",273.22998,273.22998,273.22998,275.88998,275.88,275.88,275.88,275.93,275.93,277.9
"('2003-05-23',)",266.44,266.44,266.44,267.36,272.93,272.93,272.93,270.47998,270.47998,271.44998
"('2003-05-23',)",274.47998,274.47998,274.47998,277.43,279.1,279.1,279.1,277.37,277.37,278.16998
"('2003-05-24',)",265.38,265.38,265.38,269.53,273.29,273.29,273.29,269.91,269.91,271.72
"('2003-05-24',)",273.11,273.11,273.11,275.29,277.54,277.54,277.54,277.69,277.69,278.47998
"('2003-05-25',)",,,,,,,,,,
"('2003-05-25',)",272.63998,272.63998,272.63998,275.04,277.22,277.22,277.22,276.77,276.77,278.41
"('2003-05-26',)",,,,,,,,,,
"('2003-05-26',)",275.63,275.63,275.63,277.6,279.69,279.69,279.69,279.63998,279.63998,280.44
"('2003-05-27',)",,,,,277.19,277.19,277.19,274.66,274.66,276.00998
"('2003-05-27',)",,,,,,,,,,
"('2003-05-28',)",273.05,273.05,273.05,275.79,277.77,277.77,277.77,276.1,276.1,276.02
"('2003-05-28',)",,,,,,,,,,
"('2003-05-29',)",274.85,274.85,274.85,275.49,277.18,277.18,277.18,276.16998,276.16998,277.16998
"('2003-05-29',)",274.22,274.22,274.22,276.63998,278.04,278.04,278.04,277.08,277.08,277.63998
"('2003-05-30',)",274.13998,274.13998,274.13998,275.77,278.03,278.03,278.03,274.78,274.78,276.41
"('2003-05-30',)",269.63,269.63,269.63,271.41,275.22998,275.22998,275.22998,276.03,276.03,278.02
"('2003-05-31',)",273.97,273.97,273.97,274.19,277.04,277.04,277.04,274.99,274.99,274.53
"('2003-05-31',)",272.5,272.5,272.5,271.69998,271.37,271.37,271.37,275.69998,275.69998,276.47
"('2003-06-01',)",,,,,,,,,,
"('2003-06-01',)",273.87,273.87,273.87,276.79,275.44998,275.44998,275.44998,274.38998,274.38998,277.6
"('2003-06-02',)",,,,,,,,,,
"('2003-06-02',)",274.09,274.09,274.09,272.41,272.44998,272.44998,272.44998,272.32,272.32,273.97
"('2003-06-03',)",,,,,,,,271.50998,271.50998,
"('2003-06-03',)",,,,,,,,,,
"('2003-06-04',)",270.16998,270.16998,270.16998,273.05,273.75,273.75,273.75,272.44998,272.44998,273.29
"('2003-06-04',)",,,,,,,,,,
"('2003-06-05',)",267.44998,267.44998,267.44998,270.49,268.11,268.11,268.11,267.84,267.84,271.22
"('2003-06-05',)",,,,,,,,273.81,273.81,273.8
"('2003-06-06',)",265.82,265.82,265.82,267.25,269.69998,269.69998,269.69998,268.9,268.9,269.69
"('2003-06-06',)",268.5,268.5,268.5,270.25998,263.88998,263.88998,263.88998,265.99,265.99,267.78
"('2003-06-07',)",264.38,264.38,264.38,265.38,,,,265.47,265.47,265.85
"('2003-06-07',)",270.29,270.29,270.29,273.93,273.91,273.91,273.91,274.02,274.02,274.22998
"('2003-06-08',)",264.44998,264.44998,264.44998,266.9,269.96,269.96,269.96,,,
"('2003-06-08',)",275.49,275.49,275.49,277.50998,278.91998,278.91998,278.91998,277.09,277.09,279.50998
"('2003-06-09',)",,,,,,,,,,
"('2003-06-09',)",272.72,272.72,272.72,275.44,276.29,276.29,276.29,274.52,274.52,278.38
"('2003-06-10',)",,,,,,,,,,
"('2003-06-10',)",,,,273.58,270.58,270.58,270.58,,,
"('2003-06-11',)",272.33,272.33,272.33,274.06,274.22998,274.22998,274.22998,272.54,272.54,273.41998
"('2003-06-11',)",,,,,,,,,,
"('2003-06-12',)",271.72,271.72,271.72,271.3,271.47998,271.47998,271.47998,271.22998,271.22998,272.88998
"('2003-06-12',)",,,,,,,,,,
"('2003-06-13',)",269.99,269.99,269.99,271.35,273.18,273.18,273.18,272.37,272.37,271.36
"('2003-06-13',)",269.34,269.34,269.34,271.78,274.96,274.96,274.96,272.88998,272.88998,271.05
"('2003-06-14',)",269.8,269.8,269.8,,272.37,272.37,272.37,,,272.96
"('2003-06-14',)",276.32,276.32,276.32,278.63998,281.09,281.09,281.09,278.82,278.82,280.41
"('2003-06-15',)",271.84,271.84,271.84,273.28,275.93,275.93,275.93,274.12,274.12,274.31
"('2003-06-15',)",274.83,274.83,274.83,280.18,281.0,281.0,281.0,280.54,280.54,280.34
"('2003-06-16',)",,,,,,,,,,
"('2003-06-16',)",273.02,273.02,273.02,276.0,277.43,277.43,277.43,275.62,275.62,277.69998
"('2003-06-17',)",,,,,,,,,,
"('2003-06-17',)",272.19,272.19,272.19,273.56,279.72998,279.72998,279.72998,277.74,277.74,279.32
"('2003-06-18',)",273.4,273.4,273.4,275.29,276.54,276.54,276.54,275.44998,275.44998,275.68
"('2003-06-18',)",,,,,,,,,,
"('2003-06-19',)",274.65,274.65,274.65,273.85,278.19,278.19,278.19,274.94,274.94,275.38
"('2003-06-19',)",,,,,,,,,,
"('2003-06-20',)",273.06,273.06,273.06,271.63998,273.59,273.59,273.59,272.25,272.25,273.03
"('2003-06-20',)",272.19,272.19,272.19,274.19998,274.41,274.41,274.41,273.85,273.85,273.05
"('2003-06-21',)",270.47,270.47,270.47,271.32,275.16,275.16,275.16,272.12,272.12,273.78
"('2003-06-21',)",277.5,277.5,277.5,278.74,278.50998,278.50998,278.50998,277.25998,277.25998,279.1
"('2003-06-22',)",273.46,273.46,273.46,270.91998,272.59,272.59,272.59,271.00998,271.00998,272.85
"('2003-06-22',)",275.22,275.22,275.22,277.24,281.44998,281.44998,281.44998,279.02,279.02,280.61
"('2003-06-23',)",,,,,,,,,,
"('2003-06-23',)",277.4,277.4,277.4,279.99,282.19,282.19,282.19,279.75,279.75,282.56
"('2003-06-24',)",,,,,,,,,,
"('2003-06-24',)",276.47,276.47,276.47,278.9,275.13998,275.13998,275.13998,275.0,275.0,277.19998
"('2003-06-25',)",270.8,270.8,270.8,270.33,270.38,270.38,270.38,268.69,268.69,270.59
"('2003-06-25',)",,,,,,,,,,
"('2003-06-26',)",270.59,270.59,270.59,272.86,273.41,273.41,273.41,271.13998,271.13998,
"('2003-06-26',)",,,,,,,,,,
"('2003-06-27',)",271.58,271.58,271.58,274.32,276.05,276.05,276.05,272.81,272.81,275.13998
"('2003-06-27',)",279.08,279.08,279.08,280.3,281.94,281.94,281.94,281.07,281.07,281.86
"('2003-06-28',)",274.4,274.4,274.4,273.22,,,,,,275.68
"('2003-06-28',)",279.04,279.04,279.04,281.25,284.47,284.47,284.47,282.83,282.83,282.82
"('2003-06-29',)",273.91,273.91,273.91,275.19,276.94998,276.94998,276.94998,274.85,274.85,277.25
"('2003-06-29',)",278.75998,278.75998,278.75998,281.75998,285.05,285.05,285.05,283.36,283.36,282.96
"('2003-06-30',)",,,,,,,,,,
"('2003-06-30',)",,,,281.81,285.71,285.71,285.71,284.47,284.47,284.94
"('2003-07-01',)",,,,,,,,,,
"('2003-07-01',)",,,,,,,,,,
"('2003-07-02',)",,,,,281.52,281.52,281.52,278.94,278.94,
"('2003-07-02',)",,,,,,,,,,
"('2003-07-03',)",278.94998,278.94998,278.94998,278.13,279.68,279.68,279.68,278.63998,278.63998,278.87
"('2003-07-03',)",,,,,,,,,,
"('2003-07-04',)",,,,278.19,280.03,280.03,280.03,277.79,277.79,277.55
"('2003-07-04',)",282.21,282.21,282.21,283.96,284.81,284.81,284.81,283.91,283.91,284.5
"('2003-07-05',)",276.72,276.72,276.72,277.04,278.47,278.47,278.47,276.44,276.44,278.27
"('2003-07-05',)",282.4,282.4,282.4,284.84,286.27,286.27,286.27,284.97998,284.97998,286.16998
"('2003-07-06',)",277.9,277.9,277.9,276.52,277.99,277.99,277.99,276.63,276.63,278.21
"('2003-07-06',)",280.38998,280.38998,280.38998,282.03,286.08,286.08,286.08,284.62,284.62,284.58
"('2003-07-07',)",278.91998,278.91998,278.91998,276.71,,,,,,
"('2003-07-07',)",281.9,281.9,281.9,284.54,285.91998,285.91998,285.91998,284.24,284.24,284.71
"('2003-07-08',)",,,,,,,,,,
"('2003-07-08',)",285.24,285.24,285.24,286.84,288.84,288.84,288.84,286.81,286.81,287.75
"('2003-07-09',)",,,,,,,,,,
"('2003-07-09',)",,,,,,,,,,
"('2003-07-10',)",277.71,277.71,277.71,277.91998,279.82,279.82,279.82,277.52,277.52,278.34
"('2003-07-10',)",,,,,,,,,,
"('2003-07-11',)",278.22998,278.22998,278.22998,278.09,,,,278.88,278.88,279.9
"('2003-07-11',)",,,,,,,,,,
"('2003-07-12',)",279.46,279.46,279.46,277.34,280.56,280.56,280.56,279.32,279.32,279.78
"('2003-07-12',)",283.81,283.81,283.81,285.44998,287.16,287.16,287.16,286.35,286.35,286.91998
"('2003-07-13',)",,,,278.44,280.02,280.02,280.02,278.91998,278.91998,279.32
"('2003-07-13',)",283.69,283.69,283.69,284.99,288.25998,288.25998,288.25998,285.79,285.79,286.59
"('2003-07-14',)",278.37,278.37,278.37,277.47998,279.65,279.65,279.65,277.72998,277.72998,278.65
"('2003-07-14',)",282.91998,282.91998,282.91998,,289.66,289.66,289.66,287.44998,287.44998,288.47
"('2003-07-15',)",,,,,,,,,,
"('2003-07-15',)",279.41998,279.41998,279.41998,280.62,286.94998,286.94998,286.94998,286.13998,286.13998,286.15
"('2003-07-16',)",,,,,,,,,,
"('2003-07-16',)",275.65,275.65,275.65,280.82,286.87,286.87,286.87,,,
"('2003-07-17',)",280.1,280.1,280.1,280.75998,282.49,282.49,282.49,282.03,282.03,281.43
"('2003-07-17',)",,,,,,,,,,
"('2003-07-18',)",280.54,280.54,280.54,279.75,283.13,283.13,283.13,282.13998,282.13998,281.31
"('2003-07-18',)",,,,,,,,,,
"('2003-07-19',)",277.65,277.65,277.65,279.04,280.0,280.0,280.0,279.83,279.83,280.06
"('2003-07-19',)",279.47998,279.47998,279.47998,281.08,284.87,284.87,284.87,279.32,279.32,283.13998
"('2003-07-20',)",276.44,276.44,276.44,276.46,278.16998,278.16998,278.16998,277.44,277.44,277.4
"('2003-07-20',)",279.97998,279.97998,279.97998,281.19998,285.16998,285.16998,285.16998,283.58,283.58,283.78
"('2003-07-21',)",278.08,278.08,278.08,276.55,280.84,280.84,280.84,277.69,277.69,279.44
"('2003-07-21',)",281.09,281.09,281.09,283.46,283.63,283.63,283.63,287.22,287.22,287.21
"('2003-07-22',)",,,,,,,,,,
"('2003-07-22',)",281.9,281.9,281.9,285.25998,,,,288.75998,288.75998,288.53
"('2003-07-23',)",,,,,,,,,,
"('2003-07-23',)",281.00998,281.00998,281.00998,280.16,286.13,286.13,286.13,288.16998,288.16998,288.35
"('2003-07-24',)",280.55,280.55,280.55,,283.4,283.4,283.4,281.47998,281.47998,281.69998
"('2003-07-24',)",,,,,,,,,,
"('2003-07-25',)",279.38998,279.38998,279.38998,280.03,282.81,282.81,282.81,280.36,280.36,
"('2003-07-25',)",,,,,,,,,,
"('2003-07-26',)",279.03,279.03,279.03,,279.41,279.41,279.41,280.41998,280.41998,281.04
"('2003-07-26',)",275.74,275.74,275.74,279.88998,277.3,277.3,277.3,283.65,283.65,283.63998
"('2003-07-27',)",,,,277.34,277.91998,277.91998,277.91998,278.58,278.58,278.27
"('2003-07-27',)",279.69998,279.69998,279.69998,282.91998,286.16,286.16,286.16,285.69,285.69,286.07
"('2003-07-28',)",277.22,277.22,277.22,275.78,279.91,279.91,279.91,278.28,278.28,278.28
"('2003-07-28',)",279.13998,279.13998,279.13998,283.94998,282.57,282.57,282.57,282.52,282.52,284.72
"('2003-07-29',)",,,,,,,,,,
"('2003-07-29',)",278.93,278.93,278.93,281.13998,283.52,283.52,283.52,281.79,281.79,282.66998
"('2003-07-30',)",,,,,,,,,,
"('2003-07-30',)",281.19998,281.19998,281.19998,283.79,286.16,286.16,286.16,286.08,286.08,286.54
"('2003-07-31',)",,,,278.36,280.41998,280.41998,280.41998,279.91,279.91,280.12
"('2003-07-31',)",,,,,,,,,,
"('2003-08-01',)",277.77,277.77,277.77,278.58,280.97,280.97,280.97,280.13,280.13,279.35
"('2003-08-01',)",,,,,,,,,,
"('2003-08-02',)",278.29,278.29,278.29,277.86,279.44998,279.44998,279.44998,279.62,279.62,279.86
"('2003-08-02',)",278.69,278.69,278.69,283.82,285.88,285.88,285.88,285.85,285.85,285.94
"('2003-08-03',)",276.83,276.83,276.83,,280.41998,280.41998,280.41998,278.44998,278.44998,279.65
"('2003-08-03',)",270.29,270.29,270.29,273.05,282.75,282.75,282.75,282.71,282.71,280.19
"('2003-08-04',)",275.16998,275.16998,275.16998,275.25,277.61,277.61,277.61,275.28,275.28,276.38
"('2003-08-04',)",280.93,280.93,280.93,281.93,284.52,284.52,284.52,284.08,284.08,284.88
"('2003-08-05',)",,,,,,,,,,
"('2003-08-05',)",280.66998,280.66998,280.66998,285.44998,288.61,288.61,288.61,286.94,286.94,
"('2003-08-06',)",,,,,,,,,,
"('2003-08-06',)",281.94998,281.94998,281.94998,281.33,284.54,284.54,284.54,286.29,286.29,285.28
"('2003-08-07',)",,,,,,,,281.65,281.65,281.69
"('2003-08-07',)",,,,,,,,,,
"('2003-08-08',)",275.9,275.9,275.9,277.5,280.85,280.85,280.85,278.77,278.77,278.63
"('2003-08-08',)",,,,,,,,,,
"('2003-08-09',)",277.31,277.31,277.31,279.09,278.91,278.91,278.91,,,279.1
"('2003-08-09',)",,,,,,,,286.37,286.37,284.81
"('2003-08-10',)",277.68,277.68,277.68,277.27,278.88998,278.88998,278.88998,279.07,279.07,278.05
"('2003-08-10',)",280.6,280.6,280.6,285.08,286.4,286.4,286.4,287.12,287.12,286.88998
"('2003-08-11',)",277.84,277.84,277.84,277.69998,280.12,280.12,280.12,279.13,279.13,279.96
"('2003-08-11',)",279.03,279.03,279.03,282.99,279.94,279.94,279.94,282.86,282.86,283.50998
"('2003-08-12',)",277.15,277.15,277.15,276.54,,,,,,
"('2003-08-12',)",281.50998,281.50998,281.50998,283.69,281.12,281.12,281.12,284.25,284.25,285.25998
"('2003-08-13',)",,,,,,,,,,
"('2003-08-13',)",283.68,283.68,283.68,284.88,285.65,285.65,285.65,284.05,284.05,285.63
"('2003-08-14',)",,,,,,,,,,
"('2003-08-14',)",,,,,,,,,,
"('2003-08-15',)",277.03,277.03,277.03,277.13,277.78,277.78,277.78,277.56,277.56,278.57
"('2003-08-15',)",,,,,,,,,,
"('2003-08-16',)",,,,277.47998,279.69998,279.69998,279.69998,278.22998,278.22998,278.83
"('2003-08-16',)",,,,,,,,,,
"('2003-08-17',)",269.15,269.15,269.15,270.15,274.6,274.6,274.6,270.72,270.72,271.52
"('2003-08-17',)",274.6,274.6,274.6,276.93,277.47,277.47,277.47,277.29,277.29,278.19
"('2003-08-18',)",272.35,272.35,272.35,,274.77,274.77,274.77,267.69,267.69,273.22998
"('2003-08-18',)",273.91,273.91,273.91,274.69998,277.22,277.22,277.22,277.41,277.41,277.38
"('2003-08-19',)",272.41998,272.41998,272.41998,271.68,272.69998,272.69998,272.69998,272.47,272.47,272.91998
"('2003-08-19',)",279.94,279.94,279.94,281.3,282.87,282.87,282.87,283.62,283.62,283.04
"('2003-08-20',)",,,,,,,,,,
"('2003-08-20',)",281.94,281.94,281.94,284.47998,286.31,286.31,286.31,284.94998,284.94998,285.53
"('2003-08-21',)",,,,,,,,,,
"('2003-08-21',)",281.33,281.33,281.33,281.47998,280.91,280.91,280.91,282.49,282.49,283.06
"('2003-08-22',)",277.58,277.58,277.58,278.03,280.02,280.02,280.02,279.47998,279.47998,279.85
"('2003-08-22',)",,,,,,,,,,
"('2003-08-23',)",275.65,275.65,275.65,275.49,278.31,278.31,278.31,275.61,275.61,277.0
"('2003-08-23',)",,,,,,,,,,
"('2003-08-24',)",272.97998,272.97998,272.97998,273.57,277.91,277.91,277.91,275.94998,275.94998,276.33
"('2003-08-24',)",272.07,272.07,272.07,278.66,280.63,280.63,280.63,277.04,277.04,279.31
"('2003-08-25',)",272.13,272.13,272.13,273.44,,,,275.63998,275.63998,275.8
"('2003-08-25',)",274.88,274.88,274.88,275.84,279.13998,279.13998,279.13998,278.16,278.16,277.97998
"('2003-08-26',)",274.16,274.16,274.16,272.27,273.6,273.6,273.6,274.75998,274.75998,274.19
"('2003-08-26',)",277.49,277.49,277.49,279.66998,,,,280.38,280.38,279.62
"('2003-08-27',)",,,,,,,,,,
"('2003-08-27',)",276.87,276.87,276.87,277.66,279.41998,279.41998,279.41998,279.36,279.36,277.65
"('2003-08-28',)",,,,,,,,,,
"('2003-08-28',)",278.55,278.55,278.55,279.50998,283.99,283.99,283.99,282.05,282.05,281.68
"('2003-08-29',)",274.97,274.97,274.97,,276.56,276.56,276.56,276.72998,276.72998,276.81
"('2003-08-29',)",,,,,,,,,,
"('2003-08-30',)",271.61,271.61,271.61,273.22998,274.54,274.54,274.54,273.8,273.8,273.79
"('2003-08-30',)",,,,,,,,,,
"('2003-08-31',)",270.82,270.82,270.82,270.06,272.32,272.32,272.32,271.77,271.77,271.57
"('2003-08-31',)",275.84,275.84,275.84,275.97,275.77,275.77,275.77,277.09,277.09,277.06
"('2003-09-01',)",270.33,270.33,270.33,270.0,270.96,270.96,270.96,270.6,270.6,270.58
"('2003-09-01',)",276.81,276.81,276.81,277.6,280.57,280.57,280.57,280.55,280.55,279.75998
"('2003-09-02',)",272.47,272.47,272.47,272.28,272.36,272.36,272.36,273.33,273.33,272.47
"('2003-09-02',)",267.94998,267.94998,267.94998,274.59,278.31,278.31,278.31,277.13998,277.13998,276.75998
"('2003-09-03',)",,,,,,,,,,
"('2003-09-03',)",270.07,270.07,270.07,273.07,279.08,279.08,279.08,280.53,280.53,280.53
"('2003-09-04',)",,,,,,,,,,
"('2003-09-04',)",279.06,279.06,279.06,280.16,282.72998,282.72998,282.72998,282.06,282.06,283.22998
"('2003-09-05',)",,,,,275.72,275.72,275.72,276.97998,276.97998,276.81
"('2003-09-05',)",,,,,,,,,,
"('2003-09-06',)",269.57,269.57,269.57,271.97,271.78,271.78,271.78,271.57,271.57,
"('2003-09-06',)",,,,,,,,,,
"('2003-09-07',)",269.24,269.24,269.24,272.4,273.65,273.65,273.65,270.63,270.63,269.93
"('2003-09-07',)",271.07,271.07,271.07,272.46,273.97998,273.97998,273.97998,273.8,273.8,273.97
"('2003-09-08',)",268.19998,268.19998,268.19998,269.69,270.09,270.09,270.09,270.84,270.84,271.22998
"('2003-09-08',)",275.16998,275.16998,275.16998,274.25998,262.44,262.44,262.44,271.94998,271.94998,273.43
"('2003-09-09',)",268.32,268.32,268.32,269.87,270.02,270.02,270.02,269.4,269.4,271.85
"('2003-09-09',)",270.5,270.5,270.5,274.34,276.18,276.18,276.18,271.75,271.75,273.21
"('2003-09-10',)",,,,,,,,,,
"('2003-09-10',)",,,,267.28,270.34,270.34,270.34,267.22,267.22,267.22
"('2003-09-11',)",,,,,,,,,,
"('2003-09-11',)",268.69,268.69,268.69,270.61,272.06,272.06,272.06,270.81,270.81,271.34
"('2003-09-12',)",,,,,,,,269.41,269.41,270.15
"('2003-09-12',)",,,,,,,,,,
"('2003-09-13',)",268.12,268.12,268.12,268.1,267.24,267.24,267.24,266.5,266.5,266.87
"('2003-09-13',)",,,,,,,,,,
"('2003-09-14',)",,,,264.58,265.36,265.36,265.36,265.25,265.25,265.21
"('2003-09-14',)",,,,,,,,271.56,271.56,271.72998
"('2003-09-15',)",267.16998,267.16998,267.16998,266.05,,,,267.77,267.77,
"('2003-09-15',)",272.74,272.74,272.74,273.43,276.43,276.43,276.43,274.69998,274.69998,275.41998
"('2003-09-16',)",269.37,269.37,269.37,267.4,270.1,270.1,270.1,270.68,270.68,272.13
"('2003-09-16',)",273.96,273.96,273.96,275.86,,,,276.52,276.52,277.24
"('2003-09-17',)",270.74,270.74,270.74,270.15,,,,,,
"('2003-09-17',)",268.85,268.85,268.85,267.82,265.86,265.86,265.86,265.33,265.33,266.37
"('2003-09-18',)",,,,,,,,,,
"('2003-09-18',)",268.37,268.37,268.37,269.75,271.86,271.86,271.86,270.44998,270.44998,271.12
"('2003-09-19',)",,,,,,,,,,
"('2003-09-19',)",,,,,,,,,,
"('2003-09-20',)",267.25998,267.25998,267.25998,268.63998,269.88,269.88,269.88,269.1,269.1,269.28
"('2003-09-20',)",,,,,,,,,,
"('2003-09-21',)",266.25998,266.25998,266.25998,266.29,,,,266.13998,266.13998,266.85
"('2003-09-21',)",,,,,,,,,,
"('2003-09-22',)",266.9,266.9,266.9,267.63998,266.94,266.94,266.94,266.93,266.93,268.47998
"('2003-09-22',)",272.25998,272.25998,272.25998,274.31,274.16998,274.16998,274.16998,273.44,273.44,273.54
"('2003-09-23',)",269.52,269.52,269.52,,267.82,267.82,267.82,,,269.19
"('2003-09-23',)",273.65,273.65,273.65,274.83,275.0,275.0,275.0,275.6,275.6,275.69
"('2003-09-24',)",268.59,268.59,268.59,266.66,265.6,265.6,265.6,267.47,267.47,267.88998
"('2003-09-24',)",274.12,274.12,274.12,275.27,275.28,275.28,275.28,276.06,276.06,275.74
"('2003-09-25',)",,,,,,,,,,
"('2003-09-25',)",274.72998,274.72998,274.72998,275.91,277.4,277.4,277.4,275.88998,275.88998,277.21
"('2003-09-26',)",,,,,,,,,,
"('2003-09-26',)",275.57,275.57,275.57,276.03,278.16,278.16,278.16,278.3,278.3,
"('2003-09-27',)",269.97998,269.97998,269.97998,270.1,269.85,269.85,269.85,270.29,270.29,271.0
"('2003-09-27',)",,,,,,,,,,
"('2003-09-28',)",268.34,268.34,268.34,268.11,268.16,268.16,268.16,270.11,270.11,270.12
"('2003-09-28',)",,,,,,,,,,
"('2003-09-29',)",269.47998,269.47998,269.47998,268.47998,267.55,267.55,267.55,269.24,269.24,270.19
"('2003-09-29',)",272.04,272.04,272.04,273.88,273.29,273.29,273.29,274.34,274.34,274.99
"('2003-09-30',)",,,,269.32,268.77,268.77,268.77,268.44998,268.44998,269.09
"('2003-09-30',)",271.97,271.97,271.97,273.19998,272.12,272.12,272.12,274.47,274.47,274.47
"('2003-10-01',)",268.6,268.6,268.6,267.29,267.84,267.84,267.84,268.04,268.04,269.77
"('2003-10-01',)",272.37,272.37,272.37,273.00998,275.12,275.12,275.12,274.91,274.91,275.09
"('2003-10-02',)",,,,,,,,,,
"('2003-10-02',)",268.11,268.11,268.11,269.32,270.65,270.65,270.65,271.93,271.93,271.88998
"('2003-10-03',)",,,,,,,,,,
"('2003-10-03',)",269.38998,269.38998,269.38998,271.35,271.38,271.38,271.38,271.78,271.78,271.38
"('2003-10-04',)",268.19998,268.19998,268.19998,268.33,266.96,266.96,266.96,269.38998,269.38998,269.25
"('2003-10-04',)",,,,,,,,,,
"('2003-10-05',)",268.12,268.12,268.12,268.88998,268.69,268.69,268.69,268.02,268.02,268.82
"('2003-10-05',)",,,,,,,,,,
"('2003-10-06',)",265.91998,265.91998,265.91998,265.6,,,,266.97998,266.97998,
"('2003-10-06',)",270.88998,270.88998,270.88998,271.94,270.75,270.75,270.75,272.44,272.44,272.33
"('2003-10-07',)",266.58,266.58,266.58,266.55,265.87,265.87,265.87,,,266.5
"('2003-10-07',)",270.22,270.22,270.22,271.8,272.06,272.06,272.06,273.38,273.38,273.06
"('2003-10-08',)",268.72,268.72,268.72,265.91,267.47998,267.47998,267.47998,267.1,267.1,267.37
"('2003-10-08',)",271.68,271.68,271.68,273.49,273.65,273.65,273.65,274.72,274.72,274.72
"('2003-10-09',)",,,,,,,,,,
"('2003-10-09',)",274.21,274.21,274.21,275.44,275.34,275.34,275.34,276.63,276.63,276.87
"('2003-10-10',)",,,,,,,,,,
"('2003-10-10',)",269.75998,269.75998,269.75998,267.81,270.25,270.25,270.25,267.41,267.41,267.65
"('2003-10-11',)",,,,,261.69998,261.69998,261.69998,260.84,260.84,261.4
"('2003-10-11',)",,,,,,,,,,
"('2003-10-12',)",266.41998,266.41998,266.41998,264.91,266.41998,266.41998,266.41998,266.41,266.41,266.04
"('2003-10-12',)",,,,,,,,,,
"('2003-10-13',)",,,,265.46,,,,264.57,264.57,265.44
"('2003-10-13',)",262.38998,262.38998,262.38998,264.13,264.59,264.59,264.59,266.02,266.02,265.25
"('2003-10-14',)",258.91998,258.91998,258.91998,259.6,260.32,260.32,260.32,260.32,260.32,260.94998
"('2003-10-14',)",267.63998,267.63998,267.63998,269.6,268.0,268.0,268.0,269.54,269.54,270.19
"('2003-10-15',)",264.69,264.69,264.69,,262.65,262.65,262.65,262.72998,262.72998,264.03
"('2003-10-15',)",268.59,268.59,268.59,269.49,268.99,268.99,268.99,269.61,269.61,270.91998
"('2003-10-16',)",,,,,,,,,,
"('2003-10-16',)",268.61,268.61,268.61,270.58,271.91998,271.91998,271.91998,271.38998,271.38998,271.9
"('2003-10-17',)",,,,,,,,,,
"('2003-10-17',)",272.81,272.81,272.81,273.71,273.28,273.28,273.28,273.19,273.19,273.71
"('2003-10-18',)",,,,,,,,268.66998,268.66998,269.35
"('2003-10-18',)",,,,,,,,,,
"('2003-10-19',)",267.19998,267.19998,267.19998,266.53,267.07,267.07,267.07,268.32,268.32,268.47998
"('2003-10-19',)",,,,,,,,,,
"('2003-10-20',)",266.78,266.78,266.78,,266.38,266.38,266.38,,,266.94
"('2003-10-20',)",,,,,,,,273.29,273.29,272.79
"('2003-10-21',)",,,,,,,,,,
"('2003-10-21',)",272.15,272.15,272.15,272.97998,271.47,271.47,271.47,272.69998,272.69998,272.66998
"('2003-10-22',)",,,,265.91998,266.58,266.58,266.58,265.52,265.52,266.66
"('2003-10-22',)",272.88998,272.88998,272.88998,273.72998,272.31,272.31,272.31,,,
"('2003-10-23',)",269.62,269.62,269.62,266.58,,,,,,
"('2003-10-23',)",271.69,271.69,271.69,272.69998,272.29,272.29,272.29,273.61,273.61,272.94998
"('2003-10-24',)",,,,,,,,,,
"('2003-10-24',)",265.99,265.99,265.99,267.25,267.5,267.5,267.5,267.93,267.93,267.79
"('2003-10-25',)",,,,,,,,,,
"('2003-10-25',)",,,,,,,,,,
"('2003-10-26',)",,,,259.53,261.69998,261.69998,261.69998,261.38998,261.38998,261.75
"('2003-10-26',)",,,,,,,,,,
"('2003-10-27',)",264.77,264.77,264.77,263.13998,264.3,264.3,264.3,263.75998,263.75998,264.28
"('2003-10-27',)",,,,,,,,,,
"('2003-10-28',)",265.13,265.13,265.13,267.78,,,,267.3,267.3,
"('2003-10-28',)",268.54,268.54,268.54,269.72998,270.13,270.13,270.13,271.69,271.69,272.52
"('2003-10-29',)",266.63,266.63,266.63,,267.59,267.59,267.59,267.46,267.46,267.32
"('2003-10-29',)",271.13,271.13,271.13,273.33,272.02,272.02,272.02,272.69,272.69,274.54
"('2003-10-30',)",265.47998,265.47998,265.47998,264.5,265.16,265.16,265.16,263.94998,263.94998,265.02
"('2003-10-30',)",265.15,265.15,265.15,269.87,265.63998,265.63998,265.63998,266.84,266.84,269.6
"('2003-10-31',)",,,,,,,,,,
"('2003-10-31',)",266.47998,266.47998,266.47998,268.13998,261.75998,261.75998,261.75998,263.16998,263.16998,265.74
"('2003-11-01',)",,,,,,,,,,
"('2003-11-01',)",265.88,265.88,265.88,267.24,264.83,264.83,264.83,,,
"('2003-11-02',)",264.38998,264.38998,264.38998,264.71,256.28,256.28,256.28,261.41,261.41,261.38998
"('2003-11-02',)",,,,,,,,,,
"('2003-11-03',)",,,,261.83,256.65,256.65,256.65,260.37,260.37,259.66
"('2003-11-03',)",,,,,,,,,,
"('2003-11-04',)",255.73,255.73,255.73,257.1,253.26,253.26,253.26,256.63,256.63,255.09999
"('2003-11-04',)",256.22998,256.22998,256.22998,258.3,253.08,253.08,253.08,257.57,257.57,256.47
"('2003-11-05',)",255.15999,255.15999,255.15999,255.87,251.12999,251.12999,251.12999,254.09999,254.09999,254.73999
"('2003-11-05',)",257.33,257.33,257.33,257.96,253.87999,253.87999,253.87999,257.3,257.3,256.55
"('2003-11-06',)",256.44998,256.44998,256.44998,256.68,252.2,252.2,252.2,253.95,253.95,253.73999
"('2003-11-06',)",258.78,258.78,258.78,259.31,254.51,254.51,254.51,257.25998,257.25998,258.63998
"('2003-11-07',)",,,,,,,,,,
"('2003-11-07',)",261.99,261.99,261.99,262.66,261.83,261.83,261.83,260.41,260.41,261.97
"('2003-11-08',)",,,,,,,,,,
"('2003-11-08',)",262.27,262.27,262.27,262.97,262.28,262.28,262.28,262.27,262.27,262.97998
"('2003-11-09',)",257.93,257.93,257.93,258.38998,257.28,257.28,257.28,255.98,255.98,256.19998
"('2003-11-09',)",,,,,,,,,,
"('2003-11-10',)",261.71,261.71,261.71,262.43,261.9,261.9,261.9,262.41,262.41,261.65
"('2003-11-10',)",,,,,,,,,,
"('2003-11-11',)",259.34,259.34,259.34,261.29,257.08,257.08,257.08,259.9,259.9,259.37
"('2003-11-11',)",259.50998,259.50998,259.50998,261.69998,259.05,259.05,259.05,260.9,260.9,260.8
"('2003-11-12',)",256.93,256.93,256.93,258.18,,,,256.13998,256.13998,
"('2003-11-12',)",260.61,260.61,260.61,261.24,258.02,258.02,258.02,257.63998,257.63998,260.13998
"('2003-11-13',)",261.12,261.12,261.12,,256.02,256.02,256.02,257.08,257.08,259.97998
"('2003-11-13',)",264.75,264.75,264.75,266.21,264.31,264.31,264.31,,,
"('2003-11-14',)",,,,,,,,,,
"('2003-11-14',)",260.09,260.09,260.09,259.94,260.13,260.13,260.13,259.6,259.6,261.41
"('2003-11-15',)",,,,,,,,,,
"('2003-11-15',)",259.02,259.02,259.02,259.54,259.29,259.29,259.29,256.41998,256.41998,258.21
"('2003-11-16',)",253.56999,253.56999,253.56999,253.56999,256.21,256.21,256.21,251.92,251.92,253.33
"('2003-11-16',)",,,,,,,,,,
"('2003-11-17',)",256.62,256.62,256.62,258.04,259.21,259.21,259.21,254.23999,254.23999,256.78
"('2003-11-17',)",,,,,,,,,,
"('2003-11-18',)",252.7,252.7,252.7,252.9,255.61,255.61,255.61,252.03,252.03,252.9
"('2003-11-18',)",254.89,254.89,254.89,257.47998,257.47,257.47,257.47,254.29,254.29,256.36
"('2003-11-19',)",255.89,255.89,255.89,252.14,255.11,255.11,255.11,250.45,250.45,
"('2003-11-19',)",260.49,260.49,260.49,261.24,260.4,260.4,260.4,257.38998,257.38998,260.31
"('2003-11-20',)",,,,258.47998,,,,255.56,255.56,255.65999
"('2003-11-20',)",261.02,261.02,261.02,263.79,261.75,261.75,261.75,259.50998,259.50998,261.93
"('2003-11-21',)",,,,,,,,,,
"('2003-11-21',)",261.34,261.34,261.34,263.3,260.69,260.69,260.69,255.42,255.42,258.63
"('2003-11-22',)",,,,,,,,,,
"('2003-11-22',)",248.43,248.43,248.43,251.4,252.14,252.14,252.14,247.68999,247.68999,248.67
"('2003-11-23',)",,,,,248.92,248.92,248.92,241.9,241.9,243.42
"('2003-11-23',)",,,,,,,,,,
"('2003-11-24',)",249.58,249.58,249.58,247.40999,252.67,252.67,252.67,247.68999,247.68999,246.76
"('2003-11-24',)",,,,,,,,,,
"('2003-11-25',)",253.43,253.43,253.43,252.06,253.70999,253.70999,253.70999,250.0,250.0,249.87
"('2003-11-25',)",253.37,253.37,253.37,254.18,255.79999,255.79999,255.79999,250.73999,250.73999,253.59
"('2003-11-26',)",250.95,250.95,250.95,251.72,253.31999,253.31999,253.31999,249.62,249.62,251.01
"('2003-11-26',)",250.0,250.0,250.0,250.92,253.83,253.83,253.83,249.97,249.97,251.68
"('2003-11-27',)",246.73999,246.73999,246.73999,246.78,249.81,249.81,249.81,248.37999,248.37999,
"('2003-11-27',)",,,,,,,,248.04,248.04,249.01999
"('2003-11-28',)",248.26,248.26,248.26,245.4,,,,,,
"('2003-11-28',)",254.84999,254.84999,254.84999,254.83,256.43,256.43,256.43,251.20999,251.20999,254.26
"('2003-11-29',)",,,,,,,,,,
"('2003-11-29',)",262.55,262.55,262.55,262.16,259.83,259.83,259.83,259.44998,259.44998,260.18
"('2003-11-30',)",,,,,,,,,,
"('2003-11-30',)",,,,,,,,,,
"('2003-12-01',)",258.18,258.18,258.18,257.38,256.06,256.06,256.06,254.89,254.89,255.95999
"('2003-12-01',)",,,,,,,,,,
"('2003-12-02',)",258.72,258.72,258.72,255.73,256.56,256.56,256.56,255.45999,255.45999,254.40999
"('2003-12-02',)",,,,,,,,255.70999,255.70999,256.61
"('2003-12-03',)",251.93,251.93,251.93,,247.87999,247.87999,247.87999,248.28,248.28,250.04999
"('2003-12-03',)",255.68999,255.68999,255.68999,257.22,253.4,253.4,253.4,252.01,252.01,254.12
"('2003-12-04',)",251.15999,251.15999,251.15999,,249.62,249.62,249.62,248.15999,248.15999,248.76
"('2003-12-04',)",253.15,253.15,253.15,255.29999,251.45,251.45,251.45,249.12999,249.12999,250.68
"('2003-12-05',)",250.54,250.54,250.54,249.84999,247.98999,247.98999,247.98999,,,247.56
"('2003-12-05',)",257.4,257.4,257.4,258.96,253.42,253.42,253.42,252.62999,252.62999,254.92
"('2003-12-06',)",,,,,,,,,,
"('2003-12-06',)",260.75,260.75,260.75,263.86,263.24,263.24,263.24,261.69998,261.69998,263.05
"('2003-12-07',)",,,,,,,,,,
"('2003-12-07',)",259.06,259.06,259.06,261.13,262.27,262.27,262.27,,,
"('2003-12-08',)",256.29,256.29,256.29,257.22998,255.68999,255.68999,255.68999,255.67,255.67,255.0
"('2003-12-08',)",,,,,,,,,,
"('2003-12-09',)",249.23999,249.23999,249.23999,249.25,251.04,251.04,251.04,251.54999,251.54999,249.79
"('2003-12-09',)",,,,,,,,,,
"('2003-12-10',)",248.11,248.11,248.11,245.84,249.26999,249.26999,249.26999,,,247.51
"('2003-12-10',)",250.53,250.53,250.53,251.29,252.95,252.95,252.95,246.92,246.92,250.04999
"('2003-12-11',)",247.58,247.58,247.58,248.34,250.73,250.73,250.73,,,248.14
"('2003-12-11',)",249.20999,249.20999,249.20999,249.97,250.51999,250.51999,250.51999,249.93,249.93,249.72
"('2003-12-12',)",246.98,246.98,246.98,246.70999,247.64,247.64,247.64,247.98999,247.98999,248.67
"('2003-12-12',)",247.39,247.39,247.39,249.36,248.48999,248.48999,248.48999,245.95,245.95,247.65
"('2003-12-13',)",,,,,,,,,,
"('2003-12-13',)",251.81999,251.81999,251.81999,253.70999,254.65,254.65,254.65,251.56999,251.56999,252.29999
"('2003-12-14',)",,,,,,,,,,
"('2003-12-14',)",257.61,257.61,257.61,257.94998,255.29,255.29,255.29,251.61,251.61,253.9
"('2003-12-15',)",248.12,248.12,248.12,248.67,249.06999,249.06999,249.06999,245.81999,245.81999,247.34999
"('2003-12-15',)",,,,,,,,,,
"('2003-12-16',)",241.39,241.39,241.39,242.83,243.81999,243.81999,243.81999,241.98999,241.98999,243.75
"('2003-12-16',)",,,,,,,,,,
"('2003-12-17',)",247.79,247.79,247.79,,248.54,248.54,248.54,,,245.84
"('2003-12-17',)",251.97,251.97,251.97,253.14,250.23999,250.23999,250.23999,246.75,246.75,249.86
"('2003-12-18',)",249.06999,249.06999,249.06999,246.61,246.42,246.42,246.42,246.43,246.43,247.12
"('2003-12-18',)",252.01,252.01,252.01,253.42,250.06,250.06,250.06,249.23999,249.23999,251.87999
"('2003-12-19',)",,,,248.33,246.42,246.42,246.42,245.97,245.97,246.47
"('2003-12-19',)",255.36,255.36,255.36,255.37999,249.7,249.7,249.7,250.22,250.22,253.11
"('2003-12-20',)",,,,,,,,,,
"('2003-12-20',)",256.29,256.29,256.29,258.52,256.31,256.31,256.31,252.89,252.89,253.78
"('2003-12-21',)",,,,,,,,,,
"('2003-12-21',)",256.08,256.08,256.08,257.44,252.15999,252.15999,252.15999,251.2,251.2,253.5
"('2003-12-22',)",250.81999,250.81999,250.81999,250.79,246.34,246.34,246.34,247.87,247.87,248.68999
"('2003-12-22',)",,,,,,,,,,
"('2003-12-23',)",247.0,247.0,247.0,244.09999,241.43,241.43,241.43,243.34999,243.34999,243.48999
"('2003-12-23',)",,,,,,,,,,
"('2003-12-24',)",249.54999,249.54999,249.54999,246.62,240.73,240.73,240.73,246.04,246.04,247.45
"('2003-12-24',)",254.06,254.06,254.06,253.20999,245.45999,245.45999,245.45999,248.37999,248.37999,249.36
"('2003-12-25',)",,,,247.64,245.54999,245.54999,245.54999,248.26999,248.26999,
"('2003-12-25',)",252.76,252.76,252.76,253.97,249.22,249.22,249.22,248.17,248.17,250.86
"('2003-12-26',)",252.42,252.42,252.42,250.97,250.01,250.01,250.01,249.34,249.34,249.37
"('2003-12-26',)",247.01999,247.01999,247.01999,249.15999,243.95999,243.95999,243.95999,,,248.48
"('2003-12-27',)",,,,,,,,,,
"('2003-12-27',)",242.25,242.25,242.25,243.06999,240.81999,240.81999,240.81999,241.61,241.61,242.5
"('2003-12-28',)",,,,,,,,,,
"('2003-12-28',)",240.79,240.79,240.79,242.48999,239.72,239.72,239.72,241.90999,241.90999,241.72
"('2003-12-29',)",,,,,236.70999,236.70999,236.70999,240.12,240.12,239.62999
"('2003-12-29',)",,,,,,,,,,
"('2003-12-30',)",251.01999,251.01999,251.01999,251.0,244.65,244.65,244.65,248.75,248.75,250.51999
"('2003-12-30',)",,,,,,,,,,
"('2003-12-31',)",247.47,247.47,247.47,248.42,242.93999,242.93999,242.93999,,,247.84
"('2003-12-31',)",249.75,249.75,249.75,251.54999,242.98,242.98,242.98,246.31,246.31,249.26999
